<?xml version="1.0" encoding="UTF-8" standalone="no"?>
<!-- Created with Inkscape (http://www.inkscape.org/) -->

<svg
   width="539.68024mm"
   height="277.35757mm"
   viewBox="0 0 539.68024 277.35757"
   version="1.1"
   id="svg5"
   inkscape:version="1.1.2 (0a00cf5339, 2022-02-04)"
   sodipodi:docname="basic_deep_architecture.svg"
   xmlns:inkscape="http://www.inkscape.org/namespaces/inkscape"
   xmlns:sodipodi="http://sodipodi.sourceforge.net/DTD/sodipodi-0.dtd"
   xmlns="http://www.w3.org/2000/svg"
   xmlns:svg="http://www.w3.org/2000/svg">
  <sodipodi:namedview
     id="namedview7"
     pagecolor="#ffffff"
     bordercolor="#666666"
     borderopacity="1.0"
     inkscape:pageshadow="2"
     inkscape:pageopacity="0.0"
     inkscape:pagecheckerboard="0"
     inkscape:document-units="mm"
     showgrid="false"
     inkscape:zoom="0.19890537"
     inkscape:cx="2584.1434"
     inkscape:cy="638.49458"
     inkscape:window-width="1128"
     inkscape:window-height="465"
     inkscape:window-x="0"
     inkscape:window-y="91"
     inkscape:window-maximized="0"
     inkscape:current-layer="layer1"
     inkscape:snap-bbox="true"
     inkscape:snap-global="true"
     inkscape:snap-bbox-edge-midpoints="true"
     inkscape:object-paths="true"
     inkscape:snap-midpoints="true"
     inkscape:snap-nodes="true"
     inkscape:bbox-nodes="true"
     inkscape:snap-intersection-paths="true" />
  <defs
     id="defs2">
    <marker
       style="overflow:visible"
       id="Arrow1Lend"
       refX="0"
       refY="0"
       orient="auto"
       inkscape:stockid="Arrow1Lend"
       inkscape:isstock="true">
      <path
         transform="matrix(-0.8,0,0,-0.8,-10,0)"
         style="fill:context-stroke;fill-rule:evenodd;stroke:context-stroke;stroke-width:1pt"
         d="M 0,0 5,-5 -12.5,0 5,5 Z"
         id="path22380" />
    </marker>
    <marker
       style="overflow:visible"
       id="Arrow1Lstart"
       refX="0"
       refY="0"
       orient="auto"
       inkscape:stockid="Arrow1Lstart"
       inkscape:isstock="true">
      <path
         transform="matrix(0.8,0,0,0.8,10,0)"
         style="fill:context-stroke;fill-rule:evenodd;stroke:context-stroke;stroke-width:1pt"
         d="M 0,0 5,-5 -12.5,0 5,5 Z"
         id="path22377" />
    </marker>
  </defs>
  <g
     inkscape:label="Layer 1"
     inkscape:groupmode="layer"
     id="layer1"
     transform="translate(17.577881,-46.888673)">
    <rect
       style="fill:#ffffcc;fill-opacity:1;fill-rule:evenodd;stroke:#bfa82e;stroke-width:1;stroke-miterlimit:4;stroke-dasharray:none;stroke-opacity:1;stop-color:#000000"
       id="rect1494"
       width="22.570009"
       height="22.570009"
       x="35.28191"
       y="68.021202" />
    <rect
       style="fill:#ffffcc;fill-opacity:1;fill-rule:evenodd;stroke:#bfa82e;stroke-width:1;stroke-miterlimit:4;stroke-dasharray:none;stroke-opacity:1;stop-color:#000000"
       id="rect1494-4"
       width="22.570009"
       height="22.570009"
       x="35.28191"
       y="90.591209" />
    <rect
       style="fill:#ffffcc;fill-opacity:1;fill-rule:evenodd;stroke:#bfa82e;stroke-width:1;stroke-miterlimit:4;stroke-dasharray:none;stroke-opacity:1;stop-color:#000000"
       id="rect1494-4-3"
       width="22.570009"
       height="22.570009"
       x="35.28191"
       y="113.16122" />
    <rect
       style="fill:#fad7ac;fill-opacity:1;fill-rule:evenodd;stroke:#b76a0b;stroke-width:1;stroke-linejoin:round;stroke-miterlimit:4;stroke-dasharray:none;stroke-opacity:1;stop-color:#000000"
       id="rect1494-4-3-7"
       width="28.485807"
       height="22.44957"
       x="-17.077881"
       y="113.22144"
       ry="6.4469676" />
    <rect
       style="fill:#ffffcc;fill-opacity:1;fill-rule:evenodd;stroke:#bfa82e;stroke-width:1;stroke-miterlimit:4;stroke-dasharray:none;stroke-opacity:1;stop-color:#000000"
       id="rect1494-4-3-5"
       width="22.570009"
       height="22.570009"
       x="35.281914"
       y="135.73123" />
    <rect
       style="fill:#ffffcc;fill-opacity:1;fill-rule:evenodd;stroke:#bfa82e;stroke-width:1;stroke-miterlimit:4;stroke-dasharray:none;stroke-opacity:1;stop-color:#000000"
       id="rect1494-4-3-1"
       width="22.570009"
       height="22.570009"
       x="35.28191"
       y="158.30124" />
    <rect
       style="font-variation-settings:normal;opacity:1;vector-effect:none;fill:#ffffcc;fill-opacity:1;fill-rule:evenodd;stroke:#bfa82e;stroke-width:1;stroke-linecap:butt;stroke-linejoin:miter;stroke-miterlimit:4;stroke-dasharray:none;stroke-dashoffset:0;stroke-opacity:1;-inkscape-stroke:none;stop-color:#000000;stop-opacity:1"
       id="rect1494-4-4"
       width="22.570009"
       height="22.570009"
       x="146.91811"
       y="90.591209" />
    <rect
       style="font-variation-settings:normal;opacity:1;vector-effect:none;fill:#ffffcc;fill-opacity:1;fill-rule:evenodd;stroke:#bfa82e;stroke-width:1;stroke-linecap:butt;stroke-linejoin:miter;stroke-miterlimit:4;stroke-dasharray:none;stroke-dashoffset:0;stroke-opacity:1;-inkscape-stroke:none;stop-color:#000000;stop-opacity:1"
       id="rect1494-4-3-4"
       width="22.570009"
       height="22.570009"
       x="146.91811"
       y="113.16122" />
    <circle
       style="fill:none;fill-opacity:1;fill-rule:evenodd;stroke:#000000;stroke-width:1;stroke-miterlimit:4;stroke-dasharray:none;stroke-opacity:1;stop-color:#000000"
       id="path1710"
       cx="102.13502"
       cy="101.87621"
       r="7.8329396" />
    <circle
       style="fill:none;fill-opacity:1;fill-rule:evenodd;stroke:#000000;stroke-width:1;stroke-miterlimit:4;stroke-dasharray:none;stroke-opacity:1;stop-color:#000000"
       id="path1710-9"
       cx="102.13502"
       cy="124.44622"
       r="7.8329396" />
    <circle
       style="fill:none;fill-opacity:1;fill-rule:evenodd;stroke:#000000;stroke-width:1;stroke-miterlimit:4;stroke-dasharray:none;stroke-opacity:1;stop-color:#000000"
       id="path1710-9-4"
       cx="102.13502"
       cy="147.01624"
       r="7.8329396" />
    <text
       xml:space="preserve"
       style="font-size:10.5833px;line-height:1.25;font-family:sans-serif;word-spacing:0px;stroke-width:0.264583"
       x="13.075525"
       y="54.929501"
       id="text3418"><tspan
         sodipodi:role="line"
         id="tspan3416"
         style="font-style:normal;font-variant:normal;font-weight:bold;font-stretch:normal;font-family:sans-serif;-inkscape-font-specification:'sans-serif Bold';stroke-width:0.264583"
         x="13.075525"
         y="54.929501">Embedding</tspan></text>
    <text
       xml:space="preserve"
       style="font-size:10.5833px;line-height:1.25;font-family:sans-serif;word-spacing:0px;stroke-width:0.264583"
       x="199.82352"
       y="114.58207"
       id="text3418-5"><tspan
         sodipodi:role="line"
         id="tspan3416-3"
         style="font-style:normal;font-variant:normal;font-weight:bold;font-stretch:normal;font-family:sans-serif;-inkscape-font-specification:'sans-serif Bold';stroke-width:0.264583"
         x="199.82352"
         y="114.58207">Concatenation</tspan></text>
    <text
       xml:space="preserve"
       style="font-size:10.5833px;line-height:1.25;font-family:sans-serif;word-spacing:0px;stroke-width:0.264583"
       x="-16.95035"
       y="128.22893"
       id="text3418-02"><tspan
         sodipodi:role="line"
         id="tspan3416-94"
         style="font-style:normal;font-variant:normal;font-weight:bold;font-stretch:normal;font-family:sans-serif;-inkscape-font-specification:'sans-serif Bold';stroke-width:0.264583"
         x="-16.95035"
         y="128.22893">User</tspan></text>
    <text
       xml:space="preserve"
       style="font-size:10.5833px;line-height:1.25;font-family:sans-serif;word-spacing:0px;stroke-width:0.264583"
       x="66.465477"
       y="86.050201"
       id="text3418-0"><tspan
         sodipodi:role="line"
         id="tspan3416-9"
         style="font-style:normal;font-variant:normal;font-weight:bold;font-stretch:normal;font-family:sans-serif;-inkscape-font-specification:'sans-serif Bold';stroke-width:0.264583"
         x="66.465477"
         y="86.050201">Dense layer</tspan></text>
    <path
       style="fill:none;stroke:#000000;stroke-width:1;stroke-linecap:butt;stroke-linejoin:miter;stroke-miterlimit:4;stroke-dasharray:none;stroke-opacity:1"
       d="M 57.351922,101.87621 H 93.802078"
       id="path886-0" />
    <path
       style="fill:none;stroke:#000000;stroke-width:1;stroke-linecap:butt;stroke-linejoin:miter;stroke-miterlimit:4;stroke-dasharray:none;stroke-opacity:1"
       d="M 57.351922,147.01624 H 93.802078"
       id="path886-0-9" />
    <path
       style="fill:none;stroke:#000000;stroke-width:1;stroke-linecap:butt;stroke-linejoin:miter;stroke-miterlimit:4;stroke-dasharray:none;stroke-opacity:1"
       d="m 110.46796,124.44622 h 36.45015"
       id="path886-1" />
    <path
       style="fill:none;stroke:#000000;stroke-width:1;stroke-linecap:butt;stroke-linejoin:miter;stroke-miterlimit:4;stroke-dasharray:none;stroke-opacity:1"
       d="m 110.46796,101.87621 h 36.45015"
       id="path886-0-96" />
    <path
       style="fill:none;stroke:#000000;stroke-width:1;stroke-linecap:butt;stroke-linejoin:miter;stroke-miterlimit:4;stroke-dasharray:none;stroke-opacity:1"
       d="m 110.46796,147.01624 h 36.45015"
       id="path886-0-9-2" />
    <path
       style="fill:none;stroke:#000000;stroke-width:1;stroke-linecap:butt;stroke-linejoin:miter;stroke-miterlimit:4;stroke-dasharray:none;stroke-opacity:1"
       d="m 57.85192,101.87621 35.950157,22.57001"
       id="path1585" />
    <path
       style="fill:none;stroke:#000000;stroke-width:1;stroke-linecap:butt;stroke-linejoin:miter;stroke-miterlimit:4;stroke-dasharray:none;stroke-opacity:1"
       d="M 57.85192,124.44622 93.802077,101.87621"
       id="path1587" />
    <path
       style="fill:none;stroke:#000000;stroke-width:1;stroke-linecap:butt;stroke-linejoin:miter;stroke-miterlimit:4;stroke-dasharray:none;stroke-opacity:1"
       d="m 57.601921,124.52277 35.950157,22.57001"
       id="path1585-3" />
    <path
       style="fill:none;stroke:#000000;stroke-width:1;stroke-linecap:butt;stroke-linejoin:miter;stroke-miterlimit:4;stroke-dasharray:none;stroke-opacity:1"
       d="M 57.601921,147.09278 93.552078,124.52277"
       id="path1587-6" />
    <path
       style="fill:none;stroke:#000000;stroke-width:1;stroke-linecap:butt;stroke-linejoin:miter;stroke-miterlimit:4;stroke-dasharray:none;stroke-opacity:1"
       d="m 57.351921,101.87621 36.450156,45.14003"
       id="path1832" />
    <path
       style="fill:none;stroke:#000000;stroke-width:1;stroke-linecap:butt;stroke-linejoin:miter;stroke-miterlimit:4;stroke-dasharray:none;stroke-opacity:1"
       d="m 110.46796,124.44622 h 36.45015"
       id="path886-05" />
    <path
       style="fill:none;stroke:#000000;stroke-width:1;stroke-linecap:butt;stroke-linejoin:miter;stroke-miterlimit:4;stroke-dasharray:none;stroke-opacity:1"
       d="m 110.46796,101.87621 h 36.45015"
       id="path886-0-0" />
    <path
       style="fill:none;stroke:#000000;stroke-width:1;stroke-linecap:butt;stroke-linejoin:miter;stroke-miterlimit:4;stroke-dasharray:none;stroke-opacity:1"
       d="m 110.46796,147.01624 h 36.45015"
       id="path886-0-9-29" />
    <path
       style="fill:none;stroke:#000000;stroke-width:1;stroke-linecap:butt;stroke-linejoin:miter;stroke-miterlimit:4;stroke-dasharray:none;stroke-opacity:1"
       d="m 110.96796,101.87621 35.95015,22.57001"
       id="path1585-4" />
    <path
       style="fill:none;stroke:#000000;stroke-width:1;stroke-linecap:butt;stroke-linejoin:miter;stroke-miterlimit:4;stroke-dasharray:none;stroke-opacity:1"
       d="m 110.96796,124.44622 35.95015,-22.57001"
       id="path1587-3" />
    <path
       style="fill:none;stroke:#000000;stroke-width:1;stroke-linecap:butt;stroke-linejoin:miter;stroke-miterlimit:4;stroke-dasharray:none;stroke-opacity:1"
       d="m 110.71796,124.52277 35.95015,22.57001"
       id="path1585-3-5" />
    <path
       style="fill:none;stroke:#000000;stroke-width:1;stroke-linecap:butt;stroke-linejoin:miter;stroke-miterlimit:4;stroke-dasharray:none;stroke-opacity:1"
       d="m 110.71796,147.09278 35.95015,-22.57001"
       id="path1587-6-1" />
    <path
       style="fill:none;stroke:#000000;stroke-width:1;stroke-linecap:butt;stroke-linejoin:miter;stroke-miterlimit:4;stroke-dasharray:none;stroke-opacity:1"
       d="m 110.46796,101.87621 36.45015,45.14003"
       id="path1832-7" />
    <path
       style="fill:none;stroke:#000000;stroke-width:1;stroke-linecap:butt;stroke-linejoin:miter;stroke-miterlimit:4;stroke-dasharray:none;stroke-opacity:1"
       d="M 57.351922,124.44622 H 93.802078"
       id="path886" />
    <circle
       style="fill:none;fill-opacity:1;fill-rule:evenodd;stroke:#000000;stroke-width:1;stroke-miterlimit:4;stroke-dasharray:none;stroke-opacity:1;stop-color:#000000"
       id="path1710-49"
       cx="102.13502"
       cy="101.87621"
       r="7.8329396" />
    <circle
       style="fill:none;fill-opacity:1;fill-rule:evenodd;stroke:#000000;stroke-width:1;stroke-miterlimit:4;stroke-dasharray:none;stroke-opacity:1;stop-color:#000000"
       id="path1710-9-0"
       cx="102.13502"
       cy="124.44622"
       r="7.8329396" />
    <circle
       style="fill:none;fill-opacity:1;fill-rule:evenodd;stroke:#000000;stroke-width:1;stroke-miterlimit:4;stroke-dasharray:none;stroke-opacity:1;stop-color:#000000"
       id="path1710-9-4-2"
       cx="102.13502"
       cy="147.01624"
       r="7.8329396" />
    <path
       style="fill:none;stroke:#000000;stroke-width:1;stroke-linecap:butt;stroke-linejoin:miter;stroke-miterlimit:4;stroke-dasharray:none;stroke-opacity:1"
       d="M 57.351922,101.87621 H 93.802078"
       id="path886-0-01" />
    <path
       style="fill:none;stroke:#000000;stroke-width:1;stroke-linecap:butt;stroke-linejoin:miter;stroke-miterlimit:4;stroke-dasharray:none;stroke-opacity:1"
       d="M 57.351922,147.01624 H 93.802078"
       id="path886-0-9-9" />
    <path
       style="fill:none;stroke:#000000;stroke-width:1;stroke-linecap:butt;stroke-linejoin:miter;stroke-miterlimit:4;stroke-dasharray:none;stroke-opacity:1"
       d="m 110.46796,124.44622 h 36.45015"
       id="path886-1-6" />
    <path
       style="fill:none;stroke:#000000;stroke-width:1;stroke-linecap:butt;stroke-linejoin:miter;stroke-miterlimit:4;stroke-dasharray:none;stroke-opacity:1"
       d="m 110.46796,101.87621 h 36.45015"
       id="path886-0-96-2" />
    <path
       style="fill:none;stroke:#000000;stroke-width:1;stroke-linecap:butt;stroke-linejoin:miter;stroke-miterlimit:4;stroke-dasharray:none;stroke-opacity:1"
       d="m 110.46796,147.01624 h 36.45015"
       id="path886-0-9-2-1" />
    <path
       style="fill:none;stroke:#000000;stroke-width:1;stroke-linecap:butt;stroke-linejoin:miter;stroke-miterlimit:4;stroke-dasharray:none;stroke-opacity:1"
       d="m 57.85192,101.87621 35.950157,22.57001"
       id="path1585-2" />
    <path
       style="fill:none;stroke:#000000;stroke-width:1;stroke-linecap:butt;stroke-linejoin:miter;stroke-miterlimit:4;stroke-dasharray:none;stroke-opacity:1"
       d="M 57.85192,124.44622 93.802077,101.87621"
       id="path1587-0" />
    <path
       style="fill:none;stroke:#000000;stroke-width:1;stroke-linecap:butt;stroke-linejoin:miter;stroke-miterlimit:4;stroke-dasharray:none;stroke-opacity:1"
       d="m 57.601921,124.52277 35.950157,22.57001"
       id="path1585-3-7" />
    <path
       style="fill:none;stroke:#000000;stroke-width:1;stroke-linecap:butt;stroke-linejoin:miter;stroke-miterlimit:4;stroke-dasharray:none;stroke-opacity:1"
       d="M 57.601921,147.09278 93.552078,124.52277"
       id="path1587-6-31" />
    <path
       style="fill:none;stroke:#000000;stroke-width:1;stroke-linecap:butt;stroke-linejoin:miter;stroke-miterlimit:4;stroke-dasharray:none;stroke-opacity:1"
       d="m 57.351921,101.87621 36.450156,45.14003"
       id="path1832-1" />
    <path
       style="fill:none;stroke:#000000;stroke-width:1;stroke-linecap:butt;stroke-linejoin:miter;stroke-miterlimit:4;stroke-dasharray:none;stroke-opacity:1"
       d="m 110.46796,124.44622 h 36.45015"
       id="path886-05-9" />
    <path
       style="fill:none;stroke:#000000;stroke-width:1;stroke-linecap:butt;stroke-linejoin:miter;stroke-miterlimit:4;stroke-dasharray:none;stroke-opacity:1"
       d="m 110.46796,101.87621 h 36.45015"
       id="path886-0-0-0" />
    <path
       style="fill:none;stroke:#000000;stroke-width:1;stroke-linecap:butt;stroke-linejoin:miter;stroke-miterlimit:4;stroke-dasharray:none;stroke-opacity:1"
       d="m 110.96796,101.87621 35.95015,22.57001"
       id="path1585-4-6" />
    <path
       style="fill:none;stroke:#000000;stroke-width:1;stroke-linecap:butt;stroke-linejoin:miter;stroke-miterlimit:4;stroke-dasharray:none;stroke-opacity:1"
       d="m 110.96796,124.44622 35.95015,-22.57001"
       id="path1587-3-7" />
    <path
       style="fill:none;stroke:#000000;stroke-width:1;stroke-linecap:butt;stroke-linejoin:miter;stroke-miterlimit:4;stroke-dasharray:none;stroke-opacity:1"
       d="m 110.71796,124.52277 35.95015,22.57001"
       id="path1585-3-5-7" />
    <path
       style="fill:none;stroke:#000000;stroke-width:1;stroke-linecap:butt;stroke-linejoin:miter;stroke-miterlimit:4;stroke-dasharray:none;stroke-opacity:1"
       d="m 110.46796,101.87621 36.45015,45.14003"
       id="path1832-7-6" />
    <path
       style="fill:none;stroke:#000000;stroke-width:1;stroke-linecap:butt;stroke-linejoin:miter;stroke-miterlimit:4;stroke-dasharray:none;stroke-opacity:1"
       d="M 57.351922,124.44622 H 93.802078"
       id="path886-4" />
    <text
       xml:space="preserve"
       style="font-size:10.5833px;line-height:1.25;font-family:sans-serif;word-spacing:0px;stroke-width:0.264583"
       x="263.0184"
       y="156.91124"
       id="text3418-0-82"><tspan
         sodipodi:role="line"
         id="tspan3416-9-60"
         style="font-style:normal;font-variant:normal;font-weight:bold;font-stretch:normal;font-family:sans-serif;-inkscape-font-specification:'sans-serif Bold';stroke-width:0.264583"
         x="263.0184"
         y="156.91124">Dense layer</tspan></text>
    <circle
       style="fill:none;fill-opacity:1;fill-rule:evenodd;stroke:#000000;stroke-width:1;stroke-miterlimit:4;stroke-dasharray:none;stroke-opacity:1;stop-color:#000000"
       id="path1710-7"
       cx="298.68796"
       cy="173.31377"
       r="7.8329396" />
    <circle
       style="fill:none;fill-opacity:1;fill-rule:evenodd;stroke:#000000;stroke-width:1;stroke-miterlimit:4;stroke-dasharray:none;stroke-opacity:1;stop-color:#000000"
       id="path1710-9-48"
       cx="298.68796"
       cy="195.88379"
       r="7.8329396" />
    <circle
       style="fill:none;fill-opacity:1;fill-rule:evenodd;stroke:#000000;stroke-width:1;stroke-miterlimit:4;stroke-dasharray:none;stroke-opacity:1;stop-color:#000000"
       id="path1710-9-4-5"
       cx="298.68796"
       cy="218.4538"
       r="7.8329396" />
    <path
       style="fill:none;stroke:#000000;stroke-width:1;stroke-linecap:butt;stroke-linejoin:miter;stroke-miterlimit:4;stroke-dasharray:none;stroke-opacity:1"
       d="m 253.90486,173.31375 h 36.45016"
       id="path886-0-6" />
    <path
       style="fill:none;stroke:#000000;stroke-width:1;stroke-linecap:butt;stroke-linejoin:miter;stroke-miterlimit:4;stroke-dasharray:none;stroke-opacity:1"
       d="m 253.90486,218.45378 h 36.45016"
       id="path886-0-9-6" />
    <path
       style="fill:none;stroke:#000000;stroke-width:1;stroke-linecap:butt;stroke-linejoin:miter;stroke-miterlimit:4;stroke-dasharray:none;stroke-opacity:1"
       d="m 307.0209,195.88376 h 36.45015"
       id="path886-1-4" />
    <path
       style="fill:none;stroke:#000000;stroke-width:1;stroke-linecap:butt;stroke-linejoin:miter;stroke-miterlimit:4;stroke-dasharray:none;stroke-opacity:1"
       d="m 254.40486,173.31375 35.95016,22.57001"
       id="path1585-8" />
    <path
       style="fill:none;stroke:#000000;stroke-width:1;stroke-linecap:butt;stroke-linejoin:miter;stroke-miterlimit:4;stroke-dasharray:none;stroke-opacity:1"
       d="m 254.40486,195.88376 35.95016,-22.57001"
       id="path1587-9" />
    <path
       style="fill:none;stroke:#000000;stroke-width:1;stroke-linecap:butt;stroke-linejoin:miter;stroke-miterlimit:4;stroke-dasharray:none;stroke-opacity:1"
       d="m 254.15486,195.96031 35.95016,22.57001"
       id="path1585-3-6" />
    <path
       style="fill:none;stroke:#000000;stroke-width:1;stroke-linecap:butt;stroke-linejoin:miter;stroke-miterlimit:4;stroke-dasharray:none;stroke-opacity:1"
       d="m 254.15486,218.53032 35.95016,-22.57001"
       id="path1587-6-0" />
    <path
       style="fill:none;stroke:#000000;stroke-width:1;stroke-linecap:butt;stroke-linejoin:miter;stroke-miterlimit:4;stroke-dasharray:none;stroke-opacity:1"
       d="m 253.90486,173.31375 36.45016,45.14003"
       id="path1832-70" />
    <path
       style="fill:none;stroke:#000000;stroke-width:1;stroke-linecap:butt;stroke-linejoin:miter;stroke-miterlimit:4;stroke-dasharray:none;stroke-opacity:1"
       d="m 307.0209,195.88376 h 36.45015"
       id="path886-05-10" />
    <path
       style="fill:none;stroke:#000000;stroke-width:1;stroke-linecap:butt;stroke-linejoin:miter;stroke-miterlimit:4;stroke-dasharray:none;stroke-opacity:1"
       d="m 307.5209,173.31375 35.95015,22.57001"
       id="path1585-4-7" />
    <path
       style="fill:none;stroke:#000000;stroke-width:1;stroke-linecap:butt;stroke-linejoin:miter;stroke-miterlimit:4;stroke-dasharray:none;stroke-opacity:1"
       d="m 307.2709,218.53032 35.95015,-22.57001"
       id="path1587-6-1-45" />
    <path
       style="fill:none;stroke:#000000;stroke-width:1;stroke-linecap:butt;stroke-linejoin:miter;stroke-miterlimit:4;stroke-dasharray:none;stroke-opacity:1"
       d="m 253.90486,195.88376 h 36.45016"
       id="path886-02" />
    <circle
       style="fill:none;fill-opacity:1;fill-rule:evenodd;stroke:#000000;stroke-width:1;stroke-miterlimit:4;stroke-dasharray:none;stroke-opacity:1;stop-color:#000000"
       id="path1710-49-9"
       cx="298.68796"
       cy="173.31377"
       r="7.8329396" />
    <text
       xml:space="preserve"
       style="font-size:10.5833px;line-height:1.25;font-family:sans-serif;word-spacing:0px;stroke-width:0.264583"
       x="315.43085"
       y="174.18161"
       id="text3418-0-82-5"><tspan
         sodipodi:role="line"
         id="tspan3416-9-60-9"
         style="font-style:normal;font-variant:normal;font-weight:bold;font-stretch:normal;font-family:sans-serif;-inkscape-font-specification:'sans-serif Bold';stroke-width:0.264583"
         x="315.43085"
         y="174.18161">Dense layer</tspan></text>
    <circle
       style="fill:none;fill-opacity:1;fill-rule:evenodd;stroke:#000000;stroke-width:1;stroke-miterlimit:4;stroke-dasharray:none;stroke-opacity:1;stop-color:#000000"
       id="path1710-49-9-7"
       cx="351.1004"
       cy="195.87581"
       r="7.8329396" />
    <circle
       style="fill:none;fill-opacity:1;fill-rule:evenodd;stroke:#000000;stroke-width:1;stroke-miterlimit:4;stroke-dasharray:none;stroke-opacity:1;stop-color:#000000"
       id="path1710-9-0-0"
       cx="298.68796"
       cy="195.88379"
       r="7.8329396" />
    <circle
       style="fill:none;fill-opacity:1;fill-rule:evenodd;stroke:#000000;stroke-width:1;stroke-miterlimit:4;stroke-dasharray:none;stroke-opacity:1;stop-color:#000000"
       id="path1710-9-4-2-9"
       cx="298.68796"
       cy="218.4538"
       r="7.8329396" />
    <path
       style="fill:none;stroke:#000000;stroke-width:1;stroke-linecap:butt;stroke-linejoin:miter;stroke-miterlimit:4;stroke-dasharray:none;stroke-opacity:1"
       d="m 253.90486,173.31375 h 36.45016"
       id="path886-0-01-9" />
    <path
       style="fill:none;stroke:#000000;stroke-width:1;stroke-linecap:butt;stroke-linejoin:miter;stroke-miterlimit:4;stroke-dasharray:none;stroke-opacity:1"
       d="m 253.90486,218.45378 h 36.45016"
       id="path886-0-9-9-4" />
    <path
       style="fill:none;stroke:#000000;stroke-width:1;stroke-linecap:butt;stroke-linejoin:miter;stroke-miterlimit:4;stroke-dasharray:none;stroke-opacity:1"
       d="m 307.0209,195.88376 h 36.45015"
       id="path886-1-6-5" />
    <path
       style="fill:none;stroke:#000000;stroke-width:1;stroke-linecap:butt;stroke-linejoin:miter;stroke-miterlimit:4;stroke-dasharray:none;stroke-opacity:1"
       d="m 254.40486,173.31375 35.95016,22.57001"
       id="path1585-2-3" />
    <path
       style="fill:none;stroke:#000000;stroke-width:1;stroke-linecap:butt;stroke-linejoin:miter;stroke-miterlimit:4;stroke-dasharray:none;stroke-opacity:1"
       d="m 254.40486,195.88376 35.95016,-22.57001"
       id="path1587-0-7" />
    <path
       style="fill:none;stroke:#000000;stroke-width:1;stroke-linecap:butt;stroke-linejoin:miter;stroke-miterlimit:4;stroke-dasharray:none;stroke-opacity:1"
       d="m 254.15486,195.96031 35.95016,22.57001"
       id="path1585-3-7-8" />
    <path
       style="fill:none;stroke:#000000;stroke-width:1;stroke-linecap:butt;stroke-linejoin:miter;stroke-miterlimit:4;stroke-dasharray:none;stroke-opacity:1"
       d="m 254.15486,218.53032 35.95016,-22.57001"
       id="path1587-6-31-8" />
    <path
       style="fill:none;stroke:#000000;stroke-width:1;stroke-linecap:butt;stroke-linejoin:miter;stroke-miterlimit:4;stroke-dasharray:none;stroke-opacity:1"
       d="m 253.90486,173.31375 36.45016,45.14003"
       id="path1832-1-6" />
    <path
       style="fill:none;stroke:#000000;stroke-width:1;stroke-linecap:butt;stroke-linejoin:miter;stroke-miterlimit:4;stroke-dasharray:none;stroke-opacity:1"
       d="m 307.0209,195.88376 h 36.45015"
       id="path886-05-9-0" />
    <path
       style="fill:none;stroke:#000000;stroke-width:1;stroke-linecap:butt;stroke-linejoin:miter;stroke-miterlimit:4;stroke-dasharray:none;stroke-opacity:1;marker-end:url(#Arrow1Lend)"
       d="m 358.93334,195.87581 h 36.45015"
       id="path886-05-9-0-3" />
    <path
       style="fill:none;stroke:#000000;stroke-width:1;stroke-linecap:butt;stroke-linejoin:miter;stroke-miterlimit:4;stroke-dasharray:none;stroke-opacity:1"
       d="m 307.5209,173.31375 35.95015,22.57001"
       id="path1585-4-6-6" />
    <path
       style="fill:none;stroke:#000000;stroke-width:1;stroke-linecap:butt;stroke-linejoin:miter;stroke-miterlimit:4;stroke-dasharray:none;stroke-opacity:1"
       d="m 253.90486,195.88376 h 36.45016"
       id="path886-4-9" />
    <path
       style="fill:none;stroke:#000000;stroke-width:1;stroke-linecap:butt;stroke-linejoin:miter;stroke-miterlimit:4;stroke-dasharray:none;stroke-opacity:1"
       d="M 11.968142,124.44622 H 34.78191"
       id="path886-5" />
    <rect
       style="font-variation-settings:normal;opacity:1;vector-effect:none;fill:#b1ddf0;fill-opacity:1;fill-rule:evenodd;stroke:#388aae;stroke-width:1;stroke-linecap:butt;stroke-linejoin:miter;stroke-miterlimit:4;stroke-dasharray:none;stroke-dashoffset:0;stroke-opacity:1;-inkscape-stroke:none;stop-color:#000000;stop-opacity:1"
       id="rect1494-5"
       width="22.570009"
       height="22.570009"
       x="35.28191"
       y="210.89627" />
    <rect
       style="font-variation-settings:normal;opacity:1;vector-effect:none;fill:#b1ddf0;fill-opacity:1;fill-rule:evenodd;stroke:#388aae;stroke-width:1;stroke-linecap:butt;stroke-linejoin:miter;stroke-miterlimit:4;stroke-dasharray:none;stroke-dashoffset:0;stroke-opacity:1;-inkscape-stroke:none;stop-color:#000000;stop-opacity:1"
       id="rect1494-4-2"
       width="22.570009"
       height="22.570009"
       x="35.28191"
       y="233.46631" />
    <rect
       style="font-variation-settings:normal;opacity:1;vector-effect:none;fill:#b1ddf0;fill-opacity:1;fill-rule:evenodd;stroke:#388aae;stroke-width:1;stroke-linecap:butt;stroke-linejoin:miter;stroke-miterlimit:4;stroke-dasharray:none;stroke-dashoffset:0;stroke-opacity:1;-inkscape-stroke:none;stop-color:#000000;stop-opacity:1"
       id="rect1494-4-3-6"
       width="22.570009"
       height="22.570009"
       x="35.28191"
       y="256.03632" />
    <rect
       style="fill:#1ba1e2;fill-opacity:1;fill-rule:evenodd;stroke:#0e7dbb;stroke-width:1;stroke-linejoin:round;stroke-miterlimit:4;stroke-dasharray:none;stroke-opacity:1;stop-color:#000000"
       id="rect1494-4-3-7-5"
       width="28.485807"
       height="22.44957"
       x="-17.077881"
       y="256.09656"
       ry="6.4469676" />
    <rect
       style="font-variation-settings:normal;opacity:1;vector-effect:none;fill:#b1ddf0;fill-opacity:1;fill-rule:evenodd;stroke:#388aae;stroke-width:1;stroke-linecap:butt;stroke-linejoin:miter;stroke-miterlimit:4;stroke-dasharray:none;stroke-dashoffset:0;stroke-opacity:1;-inkscape-stroke:none;stop-color:#000000;stop-opacity:1"
       id="rect1494-4-3-5-8"
       width="22.570009"
       height="22.570009"
       x="35.281914"
       y="278.60629" />
    <rect
       style="font-variation-settings:normal;opacity:1;vector-effect:none;fill:#b1ddf0;fill-opacity:1;fill-rule:evenodd;stroke:#388aae;stroke-width:1;stroke-linecap:butt;stroke-linejoin:miter;stroke-miterlimit:4;stroke-dasharray:none;stroke-dashoffset:0;stroke-opacity:1;-inkscape-stroke:none;stop-color:#000000;stop-opacity:1"
       id="rect1494-4-3-1-7"
       width="22.570009"
       height="22.570009"
       x="35.28191"
       y="301.17624" />
    <rect
       style="font-variation-settings:normal;vector-effect:none;fill:#ffffcc;fill-opacity:1;fill-rule:evenodd;stroke:#bfa82e;stroke-width:1;stroke-linecap:butt;stroke-linejoin:miter;stroke-miterlimit:4;stroke-dasharray:none;stroke-dashoffset:0;stroke-opacity:1;-inkscape-stroke:none;stop-color:#000000"
       id="rect1494-4-3-5-9"
       width="22.570009"
       height="22.570009"
       x="146.91812"
       y="135.73123" />
    <rect
       style="font-variation-settings:normal;vector-effect:none;fill:#b1ddf0;fill-opacity:1;fill-rule:evenodd;stroke:#388aae;stroke-width:1;stroke-linecap:butt;stroke-linejoin:miter;stroke-miterlimit:4;stroke-dasharray:none;stroke-dashoffset:0;stroke-opacity:1;-inkscape-stroke:none;stop-color:#000000"
       id="rect1494-4-4-9"
       width="22.570009"
       height="22.570009"
       x="146.91811"
       y="233.46631" />
    <rect
       style="font-variation-settings:normal;opacity:1;vector-effect:none;fill:#b1ddf0;fill-opacity:1;fill-rule:evenodd;stroke:#388aae;stroke-width:1;stroke-linecap:butt;stroke-linejoin:miter;stroke-miterlimit:4;stroke-dasharray:none;stroke-dashoffset:0;stroke-opacity:1;-inkscape-stroke:none;stop-color:#000000;stop-opacity:1"
       id="rect1494-4-3-4-6"
       width="22.570009"
       height="22.570009"
       x="146.91811"
       y="256.03632" />
    <rect
       style="font-variation-settings:normal;opacity:1;vector-effect:none;fill:#b1ddf0;fill-opacity:1;fill-rule:evenodd;stroke:#388aae;stroke-width:1;stroke-linecap:butt;stroke-linejoin:miter;stroke-miterlimit:4;stroke-dasharray:none;stroke-dashoffset:0;stroke-opacity:1;-inkscape-stroke:none;stop-color:#000000;stop-opacity:1"
       id="rect1494-4-3-5-9-0"
       width="22.570009"
       height="22.570009"
       x="146.91812"
       y="278.60629" />
    <rect
       style="fill:#ffffcc;fill-opacity:1;fill-rule:evenodd;stroke:#bfa82e;stroke-width:1;stroke-miterlimit:4;stroke-dasharray:none;stroke-opacity:1;stop-color:#000000"
       id="rect1494-2"
       width="22.570009"
       height="22.570009"
       x="231.58484"
       y="127.67377" />
    <rect
       style="font-variation-settings:normal;vector-effect:none;fill:#ffffcc;fill-opacity:1;fill-rule:evenodd;stroke:#bfa82e;stroke-width:1;stroke-linecap:butt;stroke-linejoin:miter;stroke-miterlimit:4;stroke-dasharray:none;stroke-dashoffset:0;stroke-opacity:1;-inkscape-stroke:none;stop-color:#000000"
       id="rect1494-4-3-4-5"
       width="22.570009"
       height="22.570009"
       x="231.58484"
       y="150.24377" />
    <rect
       style="font-variation-settings:normal;vector-effect:none;fill:#ffffcc;fill-opacity:1;fill-rule:evenodd;stroke:#bfa82e;stroke-width:1;stroke-linecap:butt;stroke-linejoin:miter;stroke-miterlimit:4;stroke-dasharray:none;stroke-dashoffset:0;stroke-opacity:1;-inkscape-stroke:none;stop-color:#000000"
       id="rect1494-4-3-5-9-7"
       width="22.570009"
       height="22.570009"
       x="231.58485"
       y="172.81378" />
    <rect
       style="font-variation-settings:normal;vector-effect:none;fill:#b1ddf0;fill-opacity:1;fill-rule:evenodd;stroke:#388aae;stroke-width:1;stroke-linecap:butt;stroke-linejoin:miter;stroke-miterlimit:4;stroke-dasharray:none;stroke-dashoffset:0;stroke-opacity:1;-inkscape-stroke:none;stop-color:#000000"
       id="rect1494-4-4-9-0"
       width="22.570009"
       height="22.570009"
       x="231.58485"
       y="196.38379" />
    <rect
       style="font-variation-settings:normal;vector-effect:none;fill:#b1ddf0;fill-opacity:1;fill-rule:evenodd;stroke:#388aae;stroke-width:1;stroke-linecap:butt;stroke-linejoin:miter;stroke-miterlimit:4;stroke-dasharray:none;stroke-dashoffset:0;stroke-opacity:1;-inkscape-stroke:none;stop-color:#000000"
       id="rect1494-4-3-4-6-8"
       width="22.570009"
       height="22.570009"
       x="231.58485"
       y="218.9538" />
    <rect
       style="font-variation-settings:normal;vector-effect:none;fill:#b1ddf0;fill-opacity:1;fill-rule:evenodd;stroke:#388aae;stroke-width:1;stroke-linecap:butt;stroke-linejoin:miter;stroke-miterlimit:4;stroke-dasharray:none;stroke-dashoffset:0;stroke-opacity:1;-inkscape-stroke:none;stop-color:#000000"
       id="rect1494-4-3-5-9-0-1"
       width="22.570009"
       height="22.570009"
       x="231.58487"
       y="241.52377" />
    <circle
       style="fill:none;fill-opacity:1;fill-rule:evenodd;stroke:#000000;stroke-width:1;stroke-miterlimit:4;stroke-dasharray:none;stroke-opacity:1;stop-color:#000000"
       id="path1710-4"
       cx="102.13502"
       cy="244.75133"
       r="7.8329396" />
    <circle
       style="fill:none;fill-opacity:1;fill-rule:evenodd;stroke:#000000;stroke-width:1;stroke-miterlimit:4;stroke-dasharray:none;stroke-opacity:1;stop-color:#000000"
       id="path1710-9-1"
       cx="102.13502"
       cy="267.32132"
       r="7.8329396" />
    <circle
       style="fill:none;fill-opacity:1;fill-rule:evenodd;stroke:#000000;stroke-width:1;stroke-miterlimit:4;stroke-dasharray:none;stroke-opacity:1;stop-color:#000000"
       id="path1710-9-4-0"
       cx="102.13502"
       cy="289.89127"
       r="7.8329396" />
    <text
       xml:space="preserve"
       style="font-size:10.5833px;line-height:1.25;font-family:sans-serif;word-spacing:0px;stroke-width:0.264583"
       x="-16.503349"
       y="271.10403"
       id="text3418-02-7"><tspan
         sodipodi:role="line"
         id="tspan3416-94-0"
         style="font-style:normal;font-variant:normal;font-weight:bold;font-stretch:normal;font-family:sans-serif;-inkscape-font-specification:'sans-serif Bold';stroke-width:0.264583"
         x="-16.503349"
         y="271.10403">Item</tspan></text>
    <text
       xml:space="preserve"
       style="font-size:10.5833px;line-height:1.25;font-family:sans-serif;word-spacing:0px;stroke-width:0.264583"
       x="66.465477"
       y="228.92529"
       id="text3418-0-8"><tspan
         sodipodi:role="line"
         id="tspan3416-9-6"
         style="font-style:normal;font-variant:normal;font-weight:bold;font-stretch:normal;font-family:sans-serif;-inkscape-font-specification:'sans-serif Bold';stroke-width:0.264583"
         x="66.465477"
         y="228.92529">Dense layer</tspan></text>
    <path
       style="fill:none;stroke:#000000;stroke-width:1;stroke-linecap:butt;stroke-linejoin:miter;stroke-miterlimit:4;stroke-dasharray:none;stroke-opacity:1"
       d="M 57.351922,244.7513 H 93.802078"
       id="path886-0-2" />
    <path
       style="fill:none;stroke:#000000;stroke-width:1;stroke-linecap:butt;stroke-linejoin:miter;stroke-miterlimit:4;stroke-dasharray:none;stroke-opacity:1"
       d="M 57.351922,289.89133 H 93.802078"
       id="path886-0-9-4" />
    <path
       style="fill:none;stroke:#000000;stroke-width:1;stroke-linecap:butt;stroke-linejoin:miter;stroke-miterlimit:4;stroke-dasharray:none;stroke-opacity:1"
       d="m 110.46796,267.32131 h 36.45015"
       id="path886-1-7" />
    <path
       style="fill:none;stroke:#000000;stroke-width:1;stroke-linecap:butt;stroke-linejoin:miter;stroke-miterlimit:4;stroke-dasharray:none;stroke-opacity:1"
       d="m 110.46796,244.7513 h 36.45015"
       id="path886-0-96-9" />
    <path
       style="fill:none;stroke:#000000;stroke-width:1;stroke-linecap:butt;stroke-linejoin:miter;stroke-miterlimit:4;stroke-dasharray:none;stroke-opacity:1"
       d="m 110.46796,289.89133 h 36.45015"
       id="path886-0-9-2-3" />
    <path
       style="fill:none;stroke:#000000;stroke-width:1;stroke-linecap:butt;stroke-linejoin:miter;stroke-miterlimit:4;stroke-dasharray:none;stroke-opacity:1"
       d="m 57.85192,244.7513 35.950157,22.57001"
       id="path1585-9" />
    <path
       style="fill:none;stroke:#000000;stroke-width:1;stroke-linecap:butt;stroke-linejoin:miter;stroke-miterlimit:4;stroke-dasharray:none;stroke-opacity:1"
       d="M 57.85192,267.32131 93.802077,244.7513"
       id="path1587-2" />
    <path
       style="fill:none;stroke:#000000;stroke-width:1;stroke-linecap:butt;stroke-linejoin:miter;stroke-miterlimit:4;stroke-dasharray:none;stroke-opacity:1"
       d="m 57.601921,267.39786 35.950157,22.57001"
       id="path1585-3-8" />
    <path
       style="fill:none;stroke:#000000;stroke-width:1;stroke-linecap:butt;stroke-linejoin:miter;stroke-miterlimit:4;stroke-dasharray:none;stroke-opacity:1"
       d="M 57.601921,289.96787 93.552078,267.39786"
       id="path1587-6-3" />
    <path
       style="fill:none;stroke:#000000;stroke-width:1;stroke-linecap:butt;stroke-linejoin:miter;stroke-miterlimit:4;stroke-dasharray:none;stroke-opacity:1"
       d="m 57.351921,244.7513 36.450156,45.14003"
       id="path1832-0" />
    <path
       style="fill:none;stroke:#000000;stroke-width:1;stroke-linecap:butt;stroke-linejoin:miter;stroke-miterlimit:4;stroke-dasharray:none;stroke-opacity:1"
       d="m 110.46796,267.32131 h 36.45015"
       id="path886-05-1" />
    <path
       style="fill:none;stroke:#000000;stroke-width:1;stroke-linecap:butt;stroke-linejoin:miter;stroke-miterlimit:4;stroke-dasharray:none;stroke-opacity:1"
       d="m 110.46796,244.7513 h 36.45015"
       id="path886-0-0-7" />
    <path
       style="fill:none;stroke:#000000;stroke-width:1;stroke-linecap:butt;stroke-linejoin:miter;stroke-miterlimit:4;stroke-dasharray:none;stroke-opacity:1"
       d="m 110.46796,289.89133 h 36.45015"
       id="path886-0-9-29-8" />
    <path
       style="fill:none;stroke:#000000;stroke-width:1;stroke-linecap:butt;stroke-linejoin:miter;stroke-miterlimit:4;stroke-dasharray:none;stroke-opacity:1"
       d="m 110.96796,244.7513 35.95015,22.57001"
       id="path1585-4-9" />
    <path
       style="fill:none;stroke:#000000;stroke-width:1;stroke-linecap:butt;stroke-linejoin:miter;stroke-miterlimit:4;stroke-dasharray:none;stroke-opacity:1"
       d="M 110.96796,267.32131 146.91811,244.7513"
       id="path1587-3-1" />
    <path
       style="fill:none;stroke:#000000;stroke-width:1;stroke-linecap:butt;stroke-linejoin:miter;stroke-miterlimit:4;stroke-dasharray:none;stroke-opacity:1"
       d="m 110.71796,267.39786 35.95015,22.57001"
       id="path1585-3-5-5" />
    <path
       style="fill:none;stroke:#000000;stroke-width:1;stroke-linecap:butt;stroke-linejoin:miter;stroke-miterlimit:4;stroke-dasharray:none;stroke-opacity:1"
       d="m 110.71796,289.96787 35.95015,-22.57001"
       id="path1587-6-1-4" />
    <path
       style="fill:none;stroke:#000000;stroke-width:1;stroke-linecap:butt;stroke-linejoin:miter;stroke-miterlimit:4;stroke-dasharray:none;stroke-opacity:1"
       d="m 110.46796,244.7513 36.45015,45.14003"
       id="path1832-7-9" />
    <path
       style="fill:none;stroke:#000000;stroke-width:1;stroke-linecap:butt;stroke-linejoin:miter;stroke-miterlimit:4;stroke-dasharray:none;stroke-opacity:1"
       d="M 57.351922,267.32131 H 93.802078"
       id="path886-2" />
    <path
       style="fill:none;stroke:#000000;stroke-width:1;stroke-linecap:butt;stroke-linejoin:miter;stroke-miterlimit:4;stroke-dasharray:none;stroke-opacity:1"
       d="M 11.968142,267.32131 H 34.78191"
       id="path886-5-5" />
    <path
       style="fill:none;stroke:#000000;stroke-width:1.15634;stroke-linecap:butt;stroke-linejoin:miter;stroke-miterlimit:4;stroke-dasharray:none;stroke-opacity:1"
       d="m 200.57993,195.88379 h 30.50492"
       id="path886-5-5-9" />
    <path
       style="fill:none;stroke:#000000;stroke-width:1;stroke-linecap:butt;stroke-linejoin:miter;stroke-miterlimit:4;stroke-dasharray:none;stroke-opacity:1"
       d="m 208.27109,195.88379 c 0,-71.43757 0,-71.43757 -38.28297,-71.43757"
       id="path6518"
       sodipodi:nodetypes="cc" />
    <path
       style="fill:none;stroke:#000000;stroke-width:1;stroke-linecap:butt;stroke-linejoin:miter;stroke-miterlimit:4;stroke-dasharray:none;stroke-opacity:1"
       d="m 208.27109,195.88379 c 0,71.43757 0,71.43757 -38.28297,71.43757"
       id="path6518-9"
       sodipodi:nodetypes="cc" />
    <circle
       style="font-variation-settings:normal;opacity:1;fill:none;fill-opacity:1;fill-rule:evenodd;stroke:#000000;stroke-width:1;stroke-linecap:butt;stroke-linejoin:miter;stroke-miterlimit:4;stroke-dasharray:none;stroke-dashoffset:0;stroke-opacity:1;stop-color:#000000;stop-opacity:1"
       id="path7669"
       cx="208.27109"
       cy="195.88379"
       r="7.6911621" />
    <text
       xml:space="preserve"
       style="font-size:10.5833px;line-height:1.25;font-family:sans-serif;word-spacing:0px;stroke-width:0.264583"
       x="329.82269"
       y="184.95882"
       id="text21722"><tspan
         sodipodi:role="line"
         id="tspan21720"
         style="stroke-width:0.264583"
         x="329.82269"
         y="184.95882">Sigmoid</tspan></text>
    <text
       xml:space="preserve"
       style="font-size:10.5833px;line-height:1.25;font-family:sans-serif;word-spacing:0px;stroke-width:0.264583"
       x="402.04291"
       y="199.82129"
       id="text21722-8"><tspan
         sodipodi:role="line"
         id="tspan21720-3"
         style="stroke-width:0.264583"
         x="402.04291"
         y="199.82129">score between 0 and 1</tspan></text>
  </g>
</svg>
